{
  "current_page": 1,
  "data": [
    {
      "id": 42,
      "nombres": "Ana",
      "apellidos": "Ruiz",
      "tipo_documento": "TI",
      "edad": 10,
      "documento_identidad": "100011",
      "representante_id": 2,
      "sede_id": 3,
      "horario_id": 4,
      "fecha_inscripcion": "2025-05-30T00:00:00.000000Z",
      "correo": "ana.ruiz@example.com",
      "direccion": "Calle 21 #11-10",
      "telefono": "3123451111",
      "rut": null,
      "autoriza_uso_imagen": true,
      "acepta_reglamento": true,
      "observaciones": null,
      "acudiente": {
        "id": 2,
        "nombres": "Lucía",
        "apellidos": "Salazar",
        "tipo_documento": "CC",
        "documento_identidad": "2345678901",
        "telefono": "3102345678",
        "email": "lucia.salazar@example.com",
        "rut": null
      },
      "sede": {
        "id": 3,
        "nombre": "Sede Centro",
        "direccion": "Av. 3 #30-30"
      },
      "horario": {
        "id": 4,
        "tipo_grupo": "Niños",
        "sede_id": 2,
        "dia_semana": "Miércoles",
        "hora_inicio": "14:00:00",
        "hora_fin": "15:30:00"
      }
    },
    {
      "id": 39,
      "nombres": "Camila",
      "apellidos": "Herrera",
      "tipo_documento": "TI",
      "edad": 11,
      "documento_identidad": "100008",
      "representante_id": 4,
      "sede_id": 2,
      "horario_id": 3,
      "fecha_inscripcion": "2025-05-30T00:00:00.000000Z",
      "correo": "camila.herrera@example.com",
      "direccion": "Cra 21 #15-78",
      "telefono": "3160001008",
      "rut": null,
      "autoriza_uso_imagen": true,
      "acepta_reglamento": true,
      "observaciones": null,
      "acudiente": {
        "id": 4,
        "nombres": "Carlos",
        "apellidos": "Mendoza",
        "tipo_documento": "CC",
        "documento_identidad": "1234567890",
        "telefono": "3101234567",
        "email": "carlos.mendoza@example.com",
        "rut": null
      },
      "sede": {
        "id": 2,
        "nombre": "Sede Sur",
        "direccion": "Av. 2 #20-20"
      },
      "horario": {
        "id": 3,
        "tipo_grupo": "Adultos",
        "sede_id": 3,
        "dia_semana": "Viernes",
        "hora_inicio": "18:00:00",
        "hora_fin": "20:00:00"
      }
    },
    {
      "id": 48,
      "nombres": "Carla",
      "apellidos": "Nieto",
      "tipo_documento": "TI",
      "edad": 11,
      "documento_identidad": "100017",
      "representante_id": 2,
      "sede_id": 3,
      "horario_id": 3,
      "fecha_inscripcion": "2025-05-30T00:00:00.000000Z",
      "correo": "carla.nieto@example.com",
      "direccion": "Cra 12 #9-09",
      "telefono": "3230001017",
      "rut": null,
      "autoriza_uso_imagen": true,
      "acepta_reglamento": true,
      "observaciones": null,
      "acudiente": {
        "id": 2,
        "nombres": "Lucía",
        "apellidos": "Salazar",
        "tipo_documento": "CC",
        "documento_identidad": "2345678901",
        "telefono": "3102345678",
        "email": "lucia.salazar@example.com",
        "rut": null
      },
      "sede": {
        "id": 3,
        "nombre": "Sede Centro",
        "direccion": "Av. 3 #30-30"
      },
      "horario": {
        "id": 3,
        "tipo_grupo": "Adultos",
        "sede_id": 3,
        "dia_semana": "Viernes",
        "hora_inicio": "18:00:00",
        "hora_fin": "20:00:00"
      }
    },
    {
      "id": 32,
      "nombres": "Carlos",
      "apellidos": "Mendoza",
      "tipo_documento": "CC",
      "edad": 18,
      "documento_identidad": "100001",
      "representante_id": null,
      "sede_id": 2,
      "horario_id": 3,
      "fecha_inscripcion": "2025-05-30T00:00:00.000000Z",
      "correo": "carlos.mendoza@example.com",
      "direccion": "Calle 10 #5-20",
      "telefono": "3120001001",
      "rut": "123456789-0",
      "autoriza_uso_imagen": true,
      "acepta_reglamento": true,
      "observaciones": null,
      "acudiente": null,
      "sede": {
        "id": 2,
        "nombre": "Sede Sur",
        "direccion": "Av. 2 #20-20"
      },
      "horario": {
        "id": 3,
        "tipo_grupo": "Adultos",
        "sede_id": 3,
        "dia_semana": "Viernes",
        "hora_inicio": "18:00:00",
        "hora_fin": "20:00:00"
      }
    },
    {
      "id": 46,
      "nombres": "Daniela",
      "apellidos": "Salazar",
      "tipo_documento": "TI",
      "edad": 14,
      "documento_identidad": "100015",
      "representante_id": 3,
      "sede_id": 3,
      "horario_id": 4,
      "fecha_inscripcion": "2025-05-30T00:00:00.000000Z",
      "correo": "daniela.salazar@example.com",
      "direccion": "Cra 25 #15-17",
      "telefono": "3210001015",
      "rut": null,
      "autoriza_uso_imagen": true,
      "acepta_reglamento": true,
      "observaciones": "Primera vez en natación",
      "acudiente": {
        "id": 3,
        "nombres": "Andrés",
        "apellidos": "Quintero",
        "tipo_documento": "CC",
        "documento_identidad": "3456789012",
        "telefono": "3103456789",
        "email": "andres.quintero@example.com",
        "rut": null
      },
      "sede": {
        "id": 3,
        "nombre": "Sede Centro",
        "direccion": "Av. 3 #30-30"
      },
      "horario": {
        "id": 4,
        "tipo_grupo": "Niños",
        "sede_id": 2,
        "dia_semana": "Miércoles",
        "hora_inicio": "14:00:00",
        "hora_fin": "15:30:00"
      }
    },
    {
      "id": 61,
      "nombres": "David",
      "apellidos": "Ibarra",
      "tipo_documento": "CC",
      "edad": 21,
      "documento_identidad": "100030",
      "representante_id": null,
      "sede_id": 3,
      "horario_id": 4,
      "fecha_inscripcion": "2025-05-30T00:00:00.000000Z",
      "correo": "david.ibarra@example.com",
      "direccion": "Cra 14 #3-14",
      "telefono": "3360001030",
      "rut": null,
      "autoriza_uso_imagen": true,
      "acepta_reglamento": true,
      "observaciones": null,
      "acudiente": null,
      "sede": {
        "id": 3,
        "nombre": "Sede Centro",
        "direccion": "Av. 3 #30-30"
      },
      "horario": {
        "id": 4,
        "tipo_grupo": "Niños",
        "sede_id": 2,
        "dia_semana": "Miércoles",
        "hora_inicio": "14:00:00",
        "hora_fin": "15:30:00"
      }
    },
    {
      "id": 40,
      "nombres": "Diego",
      "apellidos": "Castro",
      "tipo_documento": "CC",
      "edad": 29,
      "documento_identidad": "100009",
      "representante_id": null,
      "sede_id": 4,
      "horario_id": 4,
      "fecha_inscripcion": "2025-05-30T00:00:00.000000Z",
      "correo": "diego.castro@example.com",
      "direccion": "Av 18 #22-60",
      "telefono": "3170001009",
      "rut": null,
      "autoriza_uso_imagen": false,
      "acepta_reglamento": true,
      "observaciones": null,
      "acudiente": null,
      "sede": {
        "id": 4,
        "nombre": "Sede Castilla",
        "direccion": "Av. 1 #10-10"
      },
      "horario": {
        "id": 4,
        "tipo_grupo": "Niños",
        "sede_id": 2,
        "dia_semana": "Miércoles",
        "hora_inicio": "14:00:00",
        "hora_fin": "15:30:00"
      }
    },
    {
      "id": 47,
      "nombres": "Emilio",
      "apellidos": "Álvarez",
      "tipo_documento": "CC",
      "edad": 30,
      "documento_identidad": "100016",
      "representante_id": null,
      "sede_id": 4,
      "horario_id": 3,
      "fecha_inscripcion": "2025-05-30T00:00:00.000000Z",
      "correo": "emilio.alvarez@example.com",
      "direccion": "Calle 18 #8-18",
      "telefono": "3220001016",
      "rut": "556677889-1",
      "autoriza_uso_imagen": true,
      "acepta_reglamento": true,
      "observaciones": null,
      "acudiente": null,
      "sede": {
        "id": 4,
        "nombre": "Sede Castilla",
        "direccion": "Av. 1 #10-10"
      },
      "horario": {
        "id": 3,
        "tipo_grupo": "Adultos",
        "sede_id": 3,
        "dia_semana": "Viernes",
        "hora_inicio": "18:00:00",
        "hora_fin": "20:00:00"
      }
    },
    {
      "id": 60,
      "nombres": "Emma",
      "apellidos": "Zamora",
      "tipo_documento": "TI",
      "edad": 12,
      "documento_identidad": "100029",
      "representante_id": 3,
      "sede_id": 3,
      "horario_id": 3,
      "fecha_inscripcion": "2025-05-30T00:00:00.000000Z",
      "correo": "emma.zamora@example.com",
      "direccion": "Calle 7 #6-61",
      "telefono": "3350001029",
      "rut": null,
      "autoriza_uso_imagen": true,
      "acepta_reglamento": true,
      "observaciones": null,
      "acudiente": {
        "id": 3,
        "nombres": "Andrés",
        "apellidos": "Quintero",
        "tipo_documento": "CC",
        "documento_identidad": "3456789012",
        "telefono": "3103456789",
        "email": "andres.quintero@example.com",
        "rut": null
      },
      "sede": {
        "id": 3,
        "nombre": "Sede Centro",
        "direccion": "Av. 3 #30-30"
      },
      "horario": {
        "id": 3,
        "tipo_grupo": "Adultos",
        "sede_id": 3,
        "dia_semana": "Viernes",
        "hora_inicio": "18:00:00",
        "hora_fin": "20:00:00"
      }
    },
    {
      "id": 57,
      "nombres": "Esteban",
      "apellidos": "Quintero",
      "tipo_documento": "CC",
      "edad": 32,
      "documento_identidad": "100026",
      "representante_id": null,
      "sede_id": 2,
      "horario_id": 3,
      "fecha_inscripcion": "2025-05-30T00:00:00.000000Z",
      "correo": "esteban.quintero@example.com",
      "direccion": "Calle 25 #17-07",
      "telefono": "3320001026",
      "rut": "776655443-2",
      "autoriza_uso_imagen": false,
      "acepta_reglamento": true,
      "observaciones": null,
      "acudiente": null,
      "sede": {
        "id": 2,
        "nombre": "Sede Sur",
        "direccion": "Av. 2 #20-20"
      },
      "horario": {
        "id": 3,
        "tipo_grupo": "Adultos",
        "sede_id": 3,
        "dia_semana": "Viernes",
        "hora_inicio": "18:00:00",
        "hora_fin": "20:00:00"
      }
    },
    {
      "id": 30,
      "nombres": "Gabriela",
      "apellidos": "Ortiz Pinto",
      "tipo_documento": "CC",
      "edad": 27,
      "documento_identidad": "1040506070",
      "representante_id": null,
      "sede_id": 3,
      "horario_id": 3,
      "fecha_inscripcion": "2024-05-16T00:00:00.000000Z",
      "correo": "gabriela.ortiz@email.com",
      "direccion": "Calle 3 Sur # 60-25",
      "telefono": "3148889900",
      "rut": "1040506070-7",
      "autoriza_uso_imagen": true,
      "acepta_reglamento": true,
      "observaciones": "Pago completo.",
      "acudiente": null,
      "sede": {
        "id": 3,
        "nombre": "Sede Centro",
        "direccion": "Av. 3 #30-30"
      },
      "horario": {
        "id": 3,
        "tipo_grupo": "Adultos",
        "sede_id": 3,
        "dia_semana": "Viernes",
        "hora_inicio": "18:00:00",
        "hora_fin": "20:00:00"
      }
    },
    {
      "id": 44,
      "nombres": "Isabella",
      "apellidos": "Mejía",
      "tipo_documento": "TI",
      "edad": 12,
      "documento_identidad": "100013",
      "representante_id": 4,
      "sede_id": 2,
      "horario_id": 3,
      "fecha_inscripcion": "2025-05-30T00:00:00.000000Z",
      "correo": "isabella.mejia@example.com",
      "direccion": "Calle 30 #7-35",
      "telefono": "3130001013",
      "rut": null,
      "autoriza_uso_imagen": true,
      "acepta_reglamento": true,
      "observaciones": null,
      "acudiente": {
        "id": 4,
        "nombres": "Carlos",
        "apellidos": "Mendoza",
        "tipo_documento": "CC",
        "documento_identidad": "1234567890",
        "telefono": "3101234567",
        "email": "carlos.mendoza@example.com",
        "rut": null
      },
      "sede": {
        "id": 2,
        "nombre": "Sede Sur",
        "direccion": "Av. 2 #20-20"
      },
      "horario": {
        "id": 3,
        "tipo_grupo": "Adultos",
        "sede_id": 3,
        "dia_semana": "Viernes",
        "hora_inicio": "18:00:00",
        "hora_fin": "20:00:00"
      }
    },
    {
      "id": 59,
      "nombres": "Jorge",
      "apellidos": "Barrera",
      "tipo_documento": "CC",
      "edad": 29,
      "documento_identidad": "100028",
      "representante_id": null,
      "sede_id": 2,
      "horario_id": 4,
      "fecha_inscripcion": "2025-05-30T00:00:00.000000Z",
      "correo": "jorge.barrera@example.com",
      "direccion": "Av 10 #1-19",
      "telefono": "3340001028",
      "rut": null,
      "autoriza_uso_imagen": true,
      "acepta_reglamento": true,
      "observaciones": null,
      "acudiente": null,
      "sede": {
        "id": 2,
        "nombre": "Sede Sur",
        "direccion": "Av. 2 #20-20"
      },
      "horario": {
        "id": 4,
        "tipo_grupo": "Niños",
        "sede_id": 2,
        "dia_semana": "Miércoles",
        "hora_inicio": "14:00:00",
        "hora_fin": "15:30:00"
      }
    },
    {
      "id": 34,
      "nombres": "Juan",
      "apellidos": "Torres",
      "tipo_documento": "CC",
      "edad": 25,
      "documento_identidad": "100003",
      "representante_id": null,
      "sede_id": 3,
      "horario_id": 4,
      "fecha_inscripcion": "2025-05-30T00:00:00.000000Z",
      "correo": "juan.torres@example.com",
      "direccion": "Av 15 #8-30",
      "telefono": "3100001003",
      "rut": "987654321-0",
      "autoriza_uso_imagen": false,
      "acepta_reglamento": true,
      "observaciones": null,
      "acudiente": null,
      "sede": {
        "id": 3,
        "nombre": "Sede Centro",
        "direccion": "Av. 3 #30-30"
      },
      "horario": {
        "id": 4,
        "tipo_grupo": "Niños",
        "sede_id": 2,
        "dia_semana": "Miércoles",
        "hora_inicio": "14:00:00",
        "hora_fin": "15:30:00"
      }
    },
    {
      "id": 45,
      "nombres": "Julián",
      "apellidos": "Pardo",
      "tipo_documento": "CC",
      "edad": 28,
      "documento_identidad": "100014",
      "representante_id": null,
      "sede_id": 2,
      "horario_id": 3,
      "fecha_inscripcion": "2025-05-30T00:00:00.000000Z",
      "correo": "julian.pardo@example.com",
      "direccion": "Av 13 #5-60",
      "telefono": "3190001014",
      "rut": "445566778-0",
      "autoriza_uso_imagen": false,
      "acepta_reglamento": true,
      "observaciones": null,
      "acudiente": null,
      "sede": {
        "id": 2,
        "nombre": "Sede Sur",
        "direccion": "Av. 2 #20-20"
      },
      "horario": {
        "id": 3,
        "tipo_grupo": "Adultos",
        "sede_id": 3,
        "dia_semana": "Viernes",
        "hora_inicio": "18:00:00",
        "hora_fin": "20:00:00"
      }
    }
  ],
  "first_page_url": "http://acuafit.up.railway.app/api/estudiantes?page=1",
  "from": 1,
  "last_page": 3,
  "last_page_url": "http://acuafit.up.railway.app/api/estudiantes?page=3",
  "links": [
    {
      "url": null,
      "label": "&laquo; Previous",
      "active": false
    },
    {
      "url": "http://acuafit.up.railway.app/api/estudiantes?page=1",
      "label": "1",
      "active": true
    },
    {
      "url": "http://acuafit.up.railway.app/api/estudiantes?page=2",
      "label": "2",
      "active": false
    },
    {
      "url": "http://acuafit.up.railway.app/api/estudiantes?page=3",
      "label": "3",
      "active": false
    },
    {
      "url": "http://acuafit.up.railway.app/api/estudiantes?page=2",
      "label": "Next &raquo;",
      "active": false
    }
  ],
  "next_page_url": "http://acuafit.up.railway.app/api/estudiantes?page=2",
  "path": "http://acuafit.up.railway.app/api/estudiantes",
  "per_page": 15,
  "prev_page_url": null,
  "to": 15,
  "total": 32
}